{
    "Version": "2012-10-17",
    "Statement": [
        {
            "Effect": "Allow",
            "Action": ["elasticmapreduce:*"],
            "Resource": ["*"]
        },
        {
            "Effect": "Allow",
            "Action": ["sqs:ReceiveMessage"],
            "Resource": ["arn:aws:sqs:::hpopt-scrape-jobs-queue"]
        },
        {
            "Effect": "Allow",
            "Action": ["sqs:SendMessage*"],
            "Resource": ["arn:aws:sqs:::hpopt-simulate-jobs-queue"]
        }
    ]
}
